Top Ten R Tips & Tricks
…
The first chunk of code is how I would typically think of this problem.

test_data %>% 
  group_by(selling_country,created_year) %>% 
  mutate(count = n()) %>% 
  filter(count > 50) %>% 
  select(1:4) %>% 
  slice(1:10)

## # A tibble: 140 x 4
## # Groups:   selling_country, created_year [14]
##    created_year created_month overall_usd_value selling_country
##           <int>         <int>             <dbl> <fct>          
##  1         2017            12             140.  Australia      
##  2         2017             5              81.2 Australia      
##  3         2017             5              22.1 Australia      
##  4         2017             6             666.  Australia      
##  5         2017             7             338.  Australia      
##  6         2017             7            1043.  Australia      
##  7         2017             7             332.  Australia      
##  8         2017             8             120.  Australia      
##  9         2017             8             417.  Australia      
## 10         2017             8            1422.  Australia      
## # ... with 130 more rows

This next set of code demonstrates the alternative by using a summarise funtion within the filter. It saves a line of code and theres no need to create an actual count variable. Other summary functions you could use, sum(),n_distinct(),mean(),min(),max(), and many more.

test_data %>% 
  group_by(selling_country,created_year) %>% 
  filter(n() > 50) %>% 
  select(1:4) %>% 
  slice(1:10)

## # A tibble: 140 x 4
## # Groups:   selling_country, created_year [14]
##    created_year created_month overall_usd_value selling_country
##           <int>         <int>             <dbl> <fct>          
##  1         2017            12             140.  Australia      
##  2         2017             5              81.2 Australia      
##  3         2017             5              22.1 Australia      
##  4         2017             6             666.  Australia      
##  5         2017             7             338.  Australia      
##  6         2017             7            1043.  Australia      
##  7         2017             7             332.  Australia      
##  8         2017             8             120.  Australia      
##  9         2017             8             417.  Australia      
## 10         2017             8            1422.  Australia      
## # ... with 130 more rows
…
The above commands are a very powerful set of commands for reshaping your data. Spread and gather will pivot your existing data into a wide and narrow format respetively.

Lets say I want to compare sales year over year by month for any country with over 50 sales.

# first summarise the data and get a total for each year and month
step1 <- test_data2 %>% 
  group_by(selling_country) %>% 
  filter(n() > 50) %>% 
  group_by(selling_country,created_year,created_month) %>%
  summarise(total_usd = sum(overall_usd_value))

step1 %>% 
  slice(1:10)

## # A tibble: 421 x 4
## # Groups:   selling_country, created_year [81]
##    selling_country created_year created_month total_usd
##    <fct>                  <int>         <int>     <dbl>
##  1 Australia               2016            11     363. 
##  2 Australia               2017             5     103. 
##  3 Australia               2017             6     667. 
##  4 Australia               2017             7    1712. 
##  5 Australia               2017             8    2800. 
##  6 Australia               2017             9      16.3
##  7 Australia               2017            10    1412. 
##  8 Australia               2017            11    6574. 
##  9 Australia               2017            12   24385  
## 10 Australia               2018             1   15544. 
## # ... with 411 more rows

# now use spread to create the table with a row for year year, fill with 0
step2 <- step1 %>% 
  group_by(selling_country,created_year) %>% 
  spread(created_month,total_usd, fill = 0) 

step2 %>% 
  slice(1:10)

## # A tibble: 81 x 14
## # Groups:   selling_country, created_year [81]
##    selling_country created_year    `1`    `2`    `3`    `4`    `5`   `6`
##    <fct>                  <int>  <dbl>  <dbl>  <dbl>  <dbl>  <dbl> <dbl>
##  1 Australia               2016     0      0      0      0      0     0 
##  2 Australia               2017     0      0      0      0    103.  667.
##  3 Australia               2018 15544. 71226. 32613. 19195. 17107. 9548.
##  4 Austria                 2007     0      0      0      0      0   705.
##  5 Austria                 2008     0      0      0      0      0     0 
##  6 Austria                 2009     0      0      0      0      0     0 
##  7 Austria                 2011     0      0      0      0      0     0 
##  8 Austria                 2012     0      0      0      0      0     0 
##  9 Austria                 2013     0      0      0      0      0     0 
## 10 Austria                 2014     0      0      0      0      0     0 
## # ... with 71 more rows, and 6 more variables: `7` <dbl>, `8` <dbl>,
## #   `9` <dbl>, `10` <dbl>, `11` <dbl>, `12` <dbl>

# Use gather to to go back to a narrow format (which also creates a "complete" data set).
step3 <- step2 %>% 
  group_by(selling_country,created_year) %>% 
  gather("month","usd",3:14) %>% 
  arrange(selling_country,created_year,month)

step3 %>% 
  slice(1:10)

## # A tibble: 810 x 4
## # Groups:   selling_country, created_year [81]
##    selling_country created_year month   usd
##    <fct>                  <int> <chr> <dbl>
##  1 Australia               2016 1        0 
##  2 Australia               2016 10       0 
##  3 Australia               2016 11     363.
##  4 Australia               2016 12       0 
##  5 Australia               2016 2        0 
##  6 Australia               2016 3        0 
##  7 Australia               2016 4        0 
##  8 Australia               2016 5        0 
##  9 Australia               2016 6        0 
## 10 Australia               2016 7        0 
## # ... with 800 more rows
…
